…
fish_connection_table("RGC", partners = "outputs", summary = TRUE)
#> # A tibble: 31,649 × 6
#>    partner   prepost weight name  type      n
#>    <chr>       <dbl>  <int> <chr> <chr> <int>
#>  1 100614254       1    507 TRP_R TRP     168
#>  2 107842059       1    490 TRP_R TRP     167
#>  3 104552496       1    456 NA    NA      137
#>  4 100712890       1    444 NA    NA       67
#>  5 101670729       1    441 TRP_L TRP     128
#>  6 100102119       1    438 TRP_R TRP     101
#>  7 100616003       1    427 TRP_L TRP     135
#>  8 101031784       1    424 TRP_R TRP     143
#>  9 100110659       1    422 TRP_R TRP     130
#> 10 105087166       1    418 TRP_R TRP     123
#> # ℹ 31,639 more rows
…
