Read DVID body annotations for fish2 body ids — fish_dvid_annotations • fishr
…
# filter by type regex
df <- fish_dvid_annotations("/type:RGC.*", cache=T)
} # }
# \donttest{
# shorthand for type field
df <- fish_dvid_annotations("RGC", cache=T)
df
#> # A tibble: 4,030 × 10
#>       bodyid connectivity_type status  user  group instance type  class keywords
#>        <dbl> <chr>             <chr>   <chr> <int> <chr>    <chr> <chr> <chr>   
#>  1 100003384 NA                Sensor… NA        0 RGC_R    RGC   NA    NA      
#>  2 100003412 NA                Sensor… bergs     0 RGC_R    RGC   NA    NA      
#>  3 100004561 NA                Sensor… NA       NA RGC_R    RGC   NA    NA      
#>  4 100005196 NA                Sensor… bergs     0 RGC_R    RGC   NA    NA      
#>  5 100006092 NA                Sensor… NA        0 RGC_R    RGC   NA    NA      
#>  6 100006479 NA                Sensor… NA        0 RGC_R    RGC   NA    NA      
#>  7 100007723 NA                Sensor… NA        0 RGC_R    RGC   NA    NA      
#>  8 100009896 NA                Sensor… NA        0 RGC_R    RGC   NA    NA      
#>  9 100011090 NA                Sensor… NA        0 RGC_R    RGC   NA    NA      
#> 10 100014375 NA                Sensor… NA        0 RGC_R    RGC   NA    NA      
#> # ℹ 4,020 more rows
#> # ℹ 1 more variable: comment <chr>
…
