…
# filter by type regex
df <- fish_dvid_annotations("/type:RGC.*", cache=T)
} # }
# \donttest{
# shorthand for type field
df <- fish_dvid_annotations("RGC", cache=T)
df
#> # A tibble: 4,030 × 11
#>     bodyid connectivity_type per_node_sc status user  group instance type  class
#>      <dbl> <chr>                   <dbl> <chr>  <chr> <int> <chr>    <chr> <chr>
#>  1  1.00e8 NA                         NA Senso… NA        0 RGC_R    RGC   NA   
#>  2  1.00e8 NA                         NA Senso… bergs     0 RGC_R    RGC   NA   
#>  3  1.00e8 NA                         NA Senso… NA       NA RGC_R    RGC   NA   
#>  4  1.00e8 NA                         NA Senso… bergs     0 RGC_R    RGC   NA   
#>  5  1.00e8 NA                         NA Senso… NA        0 RGC_R    RGC   NA   
#>  6  1.00e8 NA                         NA Senso… NA        0 RGC_R    RGC   NA   
#>  7  1.00e8 NA                         NA Senso… NA        0 RGC_R    RGC   NA   
#>  8  1.00e8 NA                         NA Senso… NA        0 RGC_R    RGC   NA   
#>  9  1.00e8 NA                         NA Senso… NA        0 RGC_R    RGC   NA   
#> 10  1.00e8 NA                         NA Senso… NA        0 RGC_R    RGC   NA   
#> # ℹ 4,020 more rows
#> # ℹ 2 more variables: keywords <chr>, comment <chr>
…
